EESchema Schematic File Version 4
EELAYER 30 0
EELAYER END
$Descr A4 11693 8268
encoding utf-8
Sheet 1 1
Title "Arduino MRK shield"
Date "2020-10-17"
Rev "20201017"
Comp "SRIVATHSAN HARIHARAN"
Comment1 ""
Comment2 ""
Comment3 ""
Comment4 ""
$EndDescr
$Comp
L Connector_Generic:Conn_01x14 J1
U 1 1 5F8B4E4C
P 4925 2050
F 0 "J1" H 5005 2042 50  0000 L CNN
F 1 "Conn_01x14" H 5005 1951 50  0000 L CNN
F 2 "Connector_PinSocket_2.00mm:PinSocket_1x14_P2.00mm_Vertical" H 4925 2050 50  0001 C CNN
F 3 "~" H 4925 2050 50  0001 C CNN
	1    4925 2050
	1    0    0    -1  
$EndComp
$Comp
L Connector_Generic:Conn_01x14 J2
U 1 1 5F8B9B12
P 6300 2175
F 0 "J2" H 6218 1250 50  0000 C CNN
F 1 "Conn_01x14" H 6218 1341 50  0000 C CNN
F 2 "Connector_PinSocket_2.00mm:PinSocket_1x14_P2.00mm_Vertical" H 6300 2175 50  0001 C CNN
F 3 "~" H 6300 2175 50  0001 C CNN
	1    6300 2175
	-1   0    0    1   
$EndComp
$Comp
L Device:R_Small R1
U 1 1 5F8BDCB5
P 4350 2650
F 0 "R1" V 4154 2650 50  0000 C CNN
F 1 "10k" V 4245 2650 50  0000 C CNN
F 2 "Resistor_SMD:R_0603_1608Metric" H 4350 2650 50  0001 C CNN
F 3 "~" H 4350 2650 50  0001 C CNN
	1    4350 2650
	0    1    1    0   
$EndComp
$Comp
L W25Q16JVZPIQ:W25Q16JVZPIQ U1
U 1 1 5F8BEA61
P 7800 5500
F 0 "U1" H 7800 6167 50  0000 C CNN
F 1 "W25Q16JVZPIQ" H 7800 6076 50  0000 C CNN
F 2 "MyLib:SON127P500X600X80-9N" H 7800 5500 50  0001 L BNN
F 3 "FLASH - NOR Memory IC 16Mb (2M x 8) SPI - Quad I/O 133MHz 8-WSON (6x5)" H 7800 5500 50  0001 L BNN
F 4 "Winbond Electronics" H 7800 5500 50  0001 L BNN "Field4"
F 5 "Unavailable" H 7800 5500 50  0001 L BNN "Field5"
F 6 "WSON-8 Winbond" H 7800 5500 50  0001 L BNN "Field6"
F 7 "https://snapeda.com/shop?store=DigiKey&id=618097" H 7800 5500 50  0001 L BNN "Field7"
F 8 "None" H 7800 5500 50  0001 L BNN "Field8"
F 9 "W25Q16JVZPIQ" H 7800 5500 50  0001 L BNN "Field9"
	1    7800 5500
	1    0    0    -1  
$EndComp
$Comp
L Connector:Micro_SD_Card_Det_Hirose_DM3AT J3
U 1 1 5F8C0412
P 8025 3875
F 0 "J3" H 7975 4692 50  0000 C CNN
F 1 "Micro_SD_Card_Det_Hirose_DM3AT" H 7975 4601 50  0000 C CNN
F 2 "MyLib:GCT_MEM2067-02-180-00-A_REVB" H 10075 4575 50  0001 C CNN
F 3 "https://www.hirose.com/product/en/download_file/key_name/DM3/category/Catalog/doc_file_id/49662/?file_category_id=4&item_id=195&is_series=1" H 8025 3975 50  0001 C CNN
	1    8025 3875
	1    0    0    -1  
$EndComp
$Comp
L Device:R_Small R2
U 1 1 5F8C0DCA
P 6375 5100
F 0 "R2" H 6316 5054 50  0000 R CNN
F 1 "10k" H 6316 5145 50  0000 R CNN
F 2 "Resistor_SMD:R_0603_1608Metric" H 6375 5100 50  0001 C CNN
F 3 "~" H 6375 5100 50  0001 C CNN
	1    6375 5100
	-1   0    0    1   
$EndComp
$Comp
L power:+3.3V #PWR02
U 1 1 5F8C1625
P 6375 4875
F 0 "#PWR02" H 6375 4725 50  0001 C CNN
F 1 "+3.3V" H 6390 5048 50  0000 C CNN
F 2 "" H 6375 4875 50  0001 C CNN
F 3 "" H 6375 4875 50  0001 C CNN
	1    6375 4875
	1    0    0    -1  
$EndComp
$Comp
L power:+3.3V #PWR010
U 1 1 5F8C20D3
P 8875 5475
F 0 "#PWR010" H 8875 5325 50  0001 C CNN
F 1 "+3.3V" H 8890 5648 50  0000 C CNN
F 2 "" H 8875 5475 50  0001 C CNN
F 3 "" H 8875 5475 50  0001 C CNN
	1    8875 5475
	1    0    0    -1  
$EndComp
$Comp
L Device:C C1
U 1 1 5F8C2C85
P 7350 2775
F 0 "C1" H 7465 2821 50  0000 L CNN
F 1 "10uF" H 7465 2730 50  0000 L CNN
F 2 "Capacitor_SMD:C_0603_1608Metric" H 7388 2625 50  0001 C CNN
F 3 "~" H 7350 2775 50  0001 C CNN
	1    7350 2775
	1    0    0    -1  
$EndComp
$Comp
L Device:C C2
U 1 1 5F8C32D9
P 9150 5250
F 0 "C2" H 9265 5296 50  0000 L CNN
F 1 "100nF" H 9265 5205 50  0000 L CNN
F 2 "Capacitor_SMD:C_0603_1608Metric" H 9188 5100 50  0001 C CNN
F 3 "~" H 9150 5250 50  0001 C CNN
	1    9150 5250
	1    0    0    -1  
$EndComp
Wire Wire Line
	4250 5200 4250 2750
Wire Wire Line
	4250 2750 4725 2750
Wire Wire Line
	4250 2650 4000 2650
Wire Wire Line
	4000 2650 4000 2550
$Comp
L power:+3.3V #PWR01
U 1 1 5F8C4D49
P 4000 2550
F 0 "#PWR01" H 4000 2400 50  0001 C CNN
F 1 "+3.3V" H 4015 2723 50  0000 C CNN
F 2 "" H 4000 2550 50  0001 C CNN
F 3 "" H 4000 2550 50  0001 C CNN
	1    4000 2550
	1    0    0    -1  
$EndComp
Wire Wire Line
	6375 5000 6375 4875
$Comp
L power:GND #PWR011
U 1 1 5F8C6355
P 8925 4450
F 0 "#PWR011" H 8925 4200 50  0001 C CNN
F 1 "GND" H 8930 4277 50  0000 C CNN
F 2 "" H 8925 4450 50  0001 C CNN
F 3 "" H 8925 4450 50  0001 C CNN
	1    8925 4450
	1    0    0    -1  
$EndComp
Connection ~ 6375 5200
Wire Wire Line
	6375 5200 6900 5200
Wire Wire Line
	6900 5600 6625 5600
Wire Wire Line
	6625 5600 6625 4075
Wire Wire Line
	6625 2375 6500 2375
Wire Wire Line
	7125 4075 6625 4075
Connection ~ 6625 4075
Wire Wire Line
	6625 4075 6625 2375
Wire Wire Line
	4450 2650 4575 2650
Wire Wire Line
	7125 3575 4575 3575
Wire Wire Line
	4575 3575 4575 2650
Connection ~ 4575 2650
Wire Wire Line
	4575 2650 4725 2650
Wire Wire Line
	6750 2475 6500 2475
Wire Wire Line
	6900 5300 6750 5300
Wire Wire Line
	6750 5300 6750 3875
Wire Wire Line
	6700 5500 6700 3675
Wire Wire Line
	6700 2575 6500 2575
Wire Wire Line
	6700 5500 6900 5500
Wire Wire Line
	6500 1475 6750 1475
Wire Wire Line
	6750 1475 6750 1350
Wire Wire Line
	6500 1675 6925 1675
Wire Wire Line
	6925 1675 6925 1575
Wire Wire Line
	6500 1775 6925 1775
Wire Wire Line
	6925 1775 6925 1850
Wire Wire Line
	4250 5200 6375 5200
Wire Wire Line
	8700 5800 8800 5800
Wire Wire Line
	8800 5800 8800 5900
Wire Wire Line
	8700 5900 8800 5900
Connection ~ 8800 5900
Wire Wire Line
	8800 5900 8800 6000
$Comp
L power:GND #PWR09
U 1 1 5F8D1B41
P 8800 6000
F 0 "#PWR09" H 8800 5750 50  0001 C CNN
F 1 "GND" H 8805 5827 50  0000 C CNN
F 2 "" H 8800 6000 50  0001 C CNN
F 3 "" H 8800 6000 50  0001 C CNN
	1    8800 6000
	1    0    0    -1  
$EndComp
Wire Wire Line
	8700 5500 8875 5500
Wire Wire Line
	8875 5500 8875 5475
Wire Wire Line
	8700 5600 8875 5600
Wire Wire Line
	8875 5600 8875 5500
Connection ~ 8875 5500
Wire Wire Line
	8700 5100 8925 5100
Wire Wire Line
	8925 5100 8925 5050
Wire Wire Line
	8925 5100 9150 5100
Connection ~ 8925 5100
$Comp
L power:+3.3V #PWR012
U 1 1 5F8D475B
P 8925 5050
F 0 "#PWR012" H 8925 4900 50  0001 C CNN
F 1 "+3.3V" H 8940 5223 50  0000 C CNN
F 2 "" H 8925 5050 50  0001 C CNN
F 3 "" H 8925 5050 50  0001 C CNN
	1    8925 5050
	1    0    0    -1  
$EndComp
$Comp
L power:GND #PWR013
U 1 1 5F8D4CFD
P 9150 5400
F 0 "#PWR013" H 9150 5150 50  0001 C CNN
F 1 "GND" H 9155 5227 50  0000 C CNN
F 2 "" H 9150 5400 50  0001 C CNN
F 3 "" H 9150 5400 50  0001 C CNN
	1    9150 5400
	1    0    0    -1  
$EndComp
Wire Wire Line
	7125 3675 6700 3675
Connection ~ 6700 3675
Wire Wire Line
	6700 3675 6700 2575
Wire Wire Line
	7125 3775 6875 3775
Wire Wire Line
	6875 3775 6875 2625
Wire Wire Line
	6875 2625 7350 2625
$Comp
L power:GND #PWR08
U 1 1 5F8D6A48
P 7350 2925
F 0 "#PWR08" H 7350 2675 50  0001 C CNN
F 1 "GND" H 7355 2752 50  0000 C CNN
F 2 "" H 7350 2925 50  0001 C CNN
F 3 "" H 7350 2925 50  0001 C CNN
	1    7350 2925
	1    0    0    -1  
$EndComp
$Comp
L power:+3.3V #PWR07
U 1 1 5F8D70A9
P 7350 2625
F 0 "#PWR07" H 7350 2475 50  0001 C CNN
F 1 "+3.3V" H 7365 2798 50  0000 C CNN
F 2 "" H 7350 2625 50  0001 C CNN
F 3 "" H 7350 2625 50  0001 C CNN
	1    7350 2625
	1    0    0    -1  
$EndComp
Connection ~ 7350 2625
Wire Wire Line
	8825 4375 8925 4375
Wire Wire Line
	8925 4375 8925 4450
Wire Wire Line
	7125 3875 6750 3875
Connection ~ 6750 3875
Wire Wire Line
	6750 3875 6750 2475
Wire Wire Line
	7125 3975 6950 3975
Wire Wire Line
	6950 3975 6950 4600
$Comp
L power:GND #PWR06
U 1 1 5F8D99E5
P 6950 4600
F 0 "#PWR06" H 6950 4350 50  0001 C CNN
F 1 "GND" H 6955 4427 50  0000 C CNN
F 2 "" H 6950 4600 50  0001 C CNN
F 3 "" H 6950 4600 50  0001 C CNN
	1    6950 4600
	1    0    0    -1  
$EndComp
NoConn ~ 7125 4175
NoConn ~ 7125 4275
NoConn ~ 7125 4375
NoConn ~ 7125 3475
NoConn ~ 6500 1575
NoConn ~ 6500 1875
NoConn ~ 6500 1975
NoConn ~ 6500 2075
NoConn ~ 6500 2175
NoConn ~ 6500 2275
NoConn ~ 6500 2675
NoConn ~ 6500 2775
NoConn ~ 4725 1450
NoConn ~ 4725 1550
NoConn ~ 4725 1650
NoConn ~ 4725 1750
NoConn ~ 4725 1850
NoConn ~ 4725 1950
NoConn ~ 4725 2050
NoConn ~ 4725 2150
NoConn ~ 4725 2250
NoConn ~ 4725 2350
NoConn ~ 4725 2450
NoConn ~ 4725 2550
$Comp
L power:+3.3V #PWR04
U 1 1 5F8E7F1E
P 6925 1575
F 0 "#PWR04" H 6925 1425 50  0001 C CNN
F 1 "+3.3V" H 6940 1748 50  0000 C CNN
F 2 "" H 6925 1575 50  0001 C CNN
F 3 "" H 6925 1575 50  0001 C CNN
	1    6925 1575
	1    0    0    -1  
$EndComp
$Comp
L power:GND #PWR05
U 1 1 5F8E856C
P 6925 1850
F 0 "#PWR05" H 6925 1600 50  0001 C CNN
F 1 "GND" H 6930 1677 50  0000 C CNN
F 2 "" H 6925 1850 50  0001 C CNN
F 3 "" H 6925 1850 50  0001 C CNN
	1    6925 1850
	1    0    0    -1  
$EndComp
$Comp
L power:+5V #PWR03
U 1 1 5F8E89B9
P 6750 1350
F 0 "#PWR03" H 6750 1200 50  0001 C CNN
F 1 "+5V" H 6765 1523 50  0000 C CNN
F 2 "" H 6750 1350 50  0001 C CNN
F 3 "" H 6750 1350 50  0001 C CNN
	1    6750 1350
	1    0    0    -1  
$EndComp
Wire Notes Line
	4500 1125 7025 1125
Wire Notes Line
	7025 1125 7025 3125
Wire Notes Line
	7025 3125 4500 3125
Wire Notes Line
	4500 3125 4500 1125
Text Notes 5450 1100 0    50   ~ 10
SHIELD Pin Socket
$EndSCHEMATC
