%!PS-Adobe-3.0
%%Creator: PCBNEW
%%CreationDate: Sat Oct 17 23:07:43 2020
%%Title: C:\Users\Srivathsan\Documents\SRI desktop\Personal_project_Kicad\Arduino_MKRMEM\Gerber\Arduino_MKRMEM-NPTH-drl_map.ps
%%Pages: 1
%%PageOrder: Ascend
%%BoundingBox: 0 0 596 842
%%DocumentMedia: A4 595 842 0 () ()
%%Orientation: Landscape
%%EndComments
%%BeginProlog
/line { newpath moveto lineto stroke } bind def
/cir0 { newpath 0 360 arc stroke } bind def
/cir1 { newpath 0 360 arc gsave fill grestore stroke } bind def
/cir2 { newpath 0 360 arc gsave fill grestore stroke } bind def
/arc0 { newpath arc stroke } bind def
/arc1 { newpath 4 index 4 index moveto arc closepath gsave fill
    grestore stroke } bind def
/arc2 { newpath 4 index 4 index moveto arc closepath gsave fill
    grestore stroke } bind def
/poly0 { stroke } bind def
/poly1 { closepath gsave fill grestore stroke } bind def
/poly2 { closepath gsave fill grestore stroke } bind def
/rect0 { rectstroke } bind def
/rect1 { rectfill } bind def
/rect2 { rectfill } bind def
/linemode0 { 0 setlinecap 0 setlinejoin 0 setlinewidth } bind def
/linemode1 { 1 setlinecap 1 setlinejoin } bind def
/dashedline { [200] 100 setdash } bind def
/solidline { [] 0 setdash } bind def
/phantomshow { moveto
    /KicadFont findfont 0.000001 scalefont setfont
    show } bind def
/textshow { gsave
    findfont exch scalefont setfont concat 1 scale 0 0 moveto show
    } bind def
/reencodefont {
  findfont dup length dict begin
  { 1 index /FID ne
    { def }
    { pop pop } ifelse
  } forall
  /Encoding ISOLatin1Encoding def
  currentdict
  end } bind def
/KicadFont /Helvetica reencodefont definefont pop
/KicadFont-Bold /Helvetica-Bold reencodefont definefont pop
/KicadFont-Oblique /Helvetica-Oblique reencodefont definefont pop
/KicadFont-BoldOblique /Helvetica-BoldOblique reencodefont definefont pop
%%EndProlog
%%Page: 1 1
%%BeginPageSetup
gsave
0.0072 0.0072 scale
linemode1
82680 0 translate 90 rotate
88.2634 setlinewidth
%%EndPageSetup
0 0 0 setrgbcolor
34.7494 setlinewidth
51515.1 38416.4 1389.97 180 270 arc0
0 0 0 setrgbcolor
65414.9 38416.4 1389.97 -90 -0 arc0
0 0 0 setrgbcolor
65414.9 77335.6 1389.97 -0 90 arc0
0 0 0 setrgbcolor
51515.1 77335.6 1389.97 90 180 arc0
0 0 0 setrgbcolor
newpath
50125.2 38416.4 moveto
50125.2 77335.6 lineto
stroke
0 0 0 setrgbcolor
newpath
65414.9 37026.4 moveto
51515.1 37026.4 lineto
stroke
0 0 0 setrgbcolor
newpath
66804.8 77335.6 moveto
66804.8 38416.4 lineto
stroke
0 0 0 setrgbcolor
newpath
51515.1 78725.6 moveto
65414.9 78725.6 lineto
stroke
78.74 setlinewidth
118.11 setlinewidth
0 0 0 setrgbcolor
0 0 0 setrgbcolor
newpath
51235.4 35175.5 moveto
51235.4 36356.6 lineto
51516.7 36356.6 lineto
51685.4 36300.3 lineto
51797.9 36187.9 lineto
51854.1 36075.4 lineto
51910.4 35850.4 lineto
51910.4 35681.7 lineto
51854.1 35456.7 lineto
51797.9 35344.2 lineto
51685.4 35231.7 lineto
51516.7 35175.5 lineto
51235.4 35175.5 lineto
stroke
newpath
52416.6 35175.5 moveto
52416.6 35962.9 lineto
stroke
newpath
52416.6 35737.9 moveto
52472.8 35850.4 lineto
52529 35906.6 lineto
52641.5 35962.9 lineto
52754 35962.9 lineto
stroke
newpath
53147.7 35175.5 moveto
53147.7 35962.9 lineto
stroke
newpath
53147.7 36356.6 moveto
53091.5 36300.3 lineto
53147.7 36244.1 lineto
53204 36300.3 lineto
53147.7 36356.6 lineto
53147.7 36244.1 lineto
stroke
newpath
53878.9 35175.5 moveto
53766.4 35231.7 lineto
53710.1 35344.2 lineto
53710.1 36356.6 lineto
stroke
newpath
54497.5 35175.5 moveto
54385.1 35231.7 lineto
54328.8 35344.2 lineto
54328.8 36356.6 lineto
stroke
newpath
55847.4 35175.5 moveto
55847.4 36356.6 lineto
56241.1 35512.9 lineto
56634.8 36356.6 lineto
56634.8 35175.5 lineto
stroke
newpath
57703.4 35175.5 moveto
57703.4 35794.2 lineto
57647.1 35906.6 lineto
57534.7 35962.9 lineto
57309.7 35962.9 lineto
57197.2 35906.6 lineto
stroke
newpath
57703.4 35231.7 moveto
57590.9 35175.5 lineto
57309.7 35175.5 lineto
57197.2 35231.7 lineto
57141 35344.2 lineto
57141 35456.7 lineto
57197.2 35569.2 lineto
57309.7 35625.4 lineto
57590.9 35625.4 lineto
57703.4 35681.7 lineto
stroke
newpath
58265.8 35962.9 moveto
58265.8 34781.8 lineto
stroke
newpath
58265.8 35906.6 moveto
58378.3 35962.9 lineto
58603.3 35962.9 lineto
58715.8 35906.6 lineto
58772 35850.4 lineto
58828.2 35737.9 lineto
58828.2 35400.5 lineto
58772 35288 lineto
58715.8 35231.7 lineto
58603.3 35175.5 lineto
58378.3 35175.5 lineto
58265.8 35231.7 lineto
stroke
newpath
59334.4 35288 moveto
59390.7 35231.7 lineto
59334.4 35175.5 lineto
59278.2 35231.7 lineto
59334.4 35288 lineto
59334.4 35175.5 lineto
stroke
newpath
59334.4 35906.6 moveto
59390.7 35850.4 lineto
59334.4 35794.2 lineto
59278.2 35850.4 lineto
59334.4 35906.6 lineto
59334.4 35794.2 lineto
stroke
showpage
grestore
%%EOF
