%!PS-Adobe-3.0
%%Creator: PCBNEW
%%CreationDate: Sat Oct 17 23:07:43 2020
%%Title: C:\Users\Srivathsan\Documents\SRI desktop\Personal_project_Kicad\Arduino_MKRMEM\Gerber\Arduino_MKRMEM-PTH-drl_map.ps
%%Pages: 1
%%PageOrder: Ascend
%%BoundingBox: 0 0 596 842
%%DocumentMedia: A4 595 842 0 () ()
%%Orientation: Landscape
%%EndComments
%%BeginProlog
/line { newpath moveto lineto stroke } bind def
/cir0 { newpath 0 360 arc stroke } bind def
/cir1 { newpath 0 360 arc gsave fill grestore stroke } bind def
/cir2 { newpath 0 360 arc gsave fill grestore stroke } bind def
/arc0 { newpath arc stroke } bind def
/arc1 { newpath 4 index 4 index moveto arc closepath gsave fill
    grestore stroke } bind def
/arc2 { newpath 4 index 4 index moveto arc closepath gsave fill
    grestore stroke } bind def
/poly0 { stroke } bind def
/poly1 { closepath gsave fill grestore stroke } bind def
/poly2 { closepath gsave fill grestore stroke } bind def
/rect0 { rectstroke } bind def
/rect1 { rectfill } bind def
/rect2 { rectfill } bind def
/linemode0 { 0 setlinecap 0 setlinejoin 0 setlinewidth } bind def
/linemode1 { 1 setlinecap 1 setlinejoin } bind def
/dashedline { [200] 100 setdash } bind def
/solidline { [] 0 setdash } bind def
/phantomshow { moveto
    /KicadFont findfont 0.000001 scalefont setfont
    show } bind def
/textshow { gsave
    findfont exch scalefont setfont concat 1 scale 0 0 moveto show
    } bind def
/reencodefont {
  findfont dup length dict begin
  { 1 index /FID ne
    { def }
    { pop pop } ifelse
  } forall
  /Encoding ISOLatin1Encoding def
  currentdict
  end } bind def
/KicadFont /Helvetica reencodefont definefont pop
/KicadFont-Bold /Helvetica-Bold reencodefont definefont pop
/KicadFont-Oblique /Helvetica-Oblique reencodefont definefont pop
/KicadFont-BoldOblique /Helvetica-BoldOblique reencodefont definefont pop
%%EndProlog
%%Page: 1 1
%%BeginPageSetup
gsave
0.0072 0.0072 scale
linemode1
82680 0 translate 90 rotate
88.2634 setlinewidth
%%EndPageSetup
0 0 0 setrgbcolor
34.7494 setlinewidth
51515.1 38416.4 1389.97 180 270 arc0
0 0 0 setrgbcolor
65414.9 38416.4 1389.97 -90 -0 arc0
0 0 0 setrgbcolor
65414.9 77335.6 1389.97 -0 90 arc0
0 0 0 setrgbcolor
51515.1 77335.6 1389.97 90 180 arc0
0 0 0 setrgbcolor
newpath
50125.2 38416.4 moveto
50125.2 77335.6 lineto
stroke
0 0 0 setrgbcolor
newpath
65414.9 37026.4 moveto
51515.1 37026.4 lineto
stroke
0 0 0 setrgbcolor
newpath
66804.8 77335.6 moveto
66804.8 38416.4 lineto
stroke
0 0 0 setrgbcolor
newpath
51515.1 78725.6 moveto
65414.9 78725.6 lineto
stroke
78.74 setlinewidth
newpath
54642.6 59752.5 moveto
54920.6 59474.5 lineto
stroke
newpath
54920.6 59752.5 moveto
54642.6 59474.5 lineto
stroke
newpath
55963 39041.8 moveto
56241 38763.9 lineto
stroke
newpath
56241 39041.8 moveto
55963 38763.9 lineto
stroke
newpath
57631 48424.2 moveto
57909 48146.2 lineto
stroke
newpath
57909 48424.2 moveto
57631 48146.2 lineto
stroke
newpath
58604 48493.7 moveto
58882 48215.7 lineto
stroke
newpath
58882 48493.7 moveto
58604 48215.7 lineto
stroke
newpath
58951.5 39319.8 moveto
59229.5 39041.8 lineto
stroke
newpath
59229.5 39319.8 moveto
58951.5 39041.8 lineto
stroke
newpath
59160 55652 moveto
59438 55374 lineto
stroke
newpath
59438 55652 moveto
59160 55374 lineto
stroke
newpath
59246.9 56399.2 moveto
59524.9 56121.2 lineto
stroke
newpath
59524.9 56399.2 moveto
59246.9 56121.2 lineto
stroke
newpath
59462.3 54585.2 moveto
59740.3 54307.2 lineto
stroke
newpath
59740.3 54585.2 moveto
59462.3 54307.2 lineto
stroke
newpath
59462.3 44139.6 moveto
59740.3 43861.6 lineto
stroke
newpath
59740.3 44139.6 moveto
59462.3 43861.6 lineto
stroke
newpath
59516.3 66207.1 moveto
59794.3 65929.1 lineto
stroke
newpath
59794.3 66207.1 moveto
59516.3 65929.1 lineto
stroke
newpath
61557.7 56451.3 moveto
61835.7 56173.3 lineto
stroke
newpath
61835.7 56451.3 moveto
61557.7 56173.3 lineto
stroke
52015.5 75480 277.995 cir0
52015.5 74090.1 277.995 cir0
52015.5 72700.1 277.995 cir0
52015.5 71310.1 277.995 cir0
52015.5 69920.1 277.995 cir0
52015.5 68530.2 277.995 cir0
52015.5 67140.2 277.995 cir0
52015.5 65750.2 277.995 cir0
52015.5 64360.2 277.995 cir0
52015.5 62970.3 277.995 cir0
52015.5 61580.3 277.995 cir0
52015.5 60190.3 277.995 cir0
52015.5 58800.3 277.995 cir0
52015.5 57410.4 277.995 cir0
64824.1 75480 277.995 cir0
64824.1 74090.1 277.995 cir0
64824.1 72700.1 277.995 cir0
64824.1 71310.1 277.995 cir0
64824.1 69920.1 277.995 cir0
64824.1 68530.2 277.995 cir0
64824.1 67140.2 277.995 cir0
64824.1 65750.2 277.995 cir0
64824.1 64360.2 277.995 cir0
64824.1 62970.3 277.995 cir0
64824.1 61580.3 277.995 cir0
64824.1 60190.3 277.995 cir0
64824.1 58800.3 277.995 cir0
64824.1 57410.4 277.995 cir0
118.11 setlinewidth
0 0 0 setrgbcolor
0 0 0 setrgbcolor
newpath
51235.4 35175.5 moveto
51235.4 36356.6 lineto
51516.7 36356.6 lineto
51685.4 36300.3 lineto
51797.9 36187.9 lineto
51854.1 36075.4 lineto
51910.4 35850.4 lineto
51910.4 35681.7 lineto
51854.1 35456.7 lineto
51797.9 35344.2 lineto
51685.4 35231.7 lineto
51516.7 35175.5 lineto
51235.4 35175.5 lineto
stroke
newpath
52416.6 35175.5 moveto
52416.6 35962.9 lineto
stroke
newpath
52416.6 35737.9 moveto
52472.8 35850.4 lineto
52529 35906.6 lineto
52641.5 35962.9 lineto
52754 35962.9 lineto
stroke
newpath
53147.7 35175.5 moveto
53147.7 35962.9 lineto
stroke
newpath
53147.7 36356.6 moveto
53091.5 36300.3 lineto
53147.7 36244.1 lineto
53204 36300.3 lineto
53147.7 36356.6 lineto
53147.7 36244.1 lineto
stroke
newpath
53878.9 35175.5 moveto
53766.4 35231.7 lineto
53710.1 35344.2 lineto
53710.1 36356.6 lineto
stroke
newpath
54497.5 35175.5 moveto
54385.1 35231.7 lineto
54328.8 35344.2 lineto
54328.8 36356.6 lineto
stroke
newpath
55847.4 35175.5 moveto
55847.4 36356.6 lineto
56241.1 35512.9 lineto
56634.8 36356.6 lineto
56634.8 35175.5 lineto
stroke
newpath
57703.4 35175.5 moveto
57703.4 35794.2 lineto
57647.1 35906.6 lineto
57534.7 35962.9 lineto
57309.7 35962.9 lineto
57197.2 35906.6 lineto
stroke
newpath
57703.4 35231.7 moveto
57590.9 35175.5 lineto
57309.7 35175.5 lineto
57197.2 35231.7 lineto
57141 35344.2 lineto
57141 35456.7 lineto
57197.2 35569.2 lineto
57309.7 35625.4 lineto
57590.9 35625.4 lineto
57703.4 35681.7 lineto
stroke
newpath
58265.8 35962.9 moveto
58265.8 34781.8 lineto
stroke
newpath
58265.8 35906.6 moveto
58378.3 35962.9 lineto
58603.3 35962.9 lineto
58715.8 35906.6 lineto
58772 35850.4 lineto
58828.2 35737.9 lineto
58828.2 35400.5 lineto
58772 35288 lineto
58715.8 35231.7 lineto
58603.3 35175.5 lineto
58378.3 35175.5 lineto
58265.8 35231.7 lineto
stroke
newpath
59334.4 35288 moveto
59390.7 35231.7 lineto
59334.4 35175.5 lineto
59278.2 35231.7 lineto
59334.4 35288 lineto
59334.4 35175.5 lineto
stroke
newpath
59334.4 35906.6 moveto
59390.7 35850.4 lineto
59334.4 35794.2 lineto
59278.2 35850.4 lineto
59334.4 35906.6 lineto
59334.4 35794.2 lineto
stroke
newpath
49829.8 33368.5 moveto
50107.8 33090.5 lineto
stroke
newpath
50107.8 33368.5 moveto
49829.8 33090.5 lineto
stroke
0 0 0 setrgbcolor
0 0 0 setrgbcolor
newpath
51460.4 33876.3 moveto
51572.9 33876.3 lineto
51685.4 33820 lineto
51741.6 33763.8 lineto
51797.9 33651.3 lineto
51854.1 33426.3 lineto
51854.1 33145.1 lineto
51797.9 32920.1 lineto
51741.6 32807.7 lineto
51685.4 32751.4 lineto
51572.9 32695.2 lineto
51460.4 32695.2 lineto
51347.9 32751.4 lineto
51291.7 32807.7 lineto
51235.4 32920.1 lineto
51179.2 33145.1 lineto
51179.2 33426.3 lineto
51235.4 33651.3 lineto
51291.7 33763.8 lineto
51347.9 33820 lineto
51460.4 33876.3 lineto
stroke
newpath
52360.3 32807.7 moveto
52416.6 32751.4 lineto
52360.3 32695.2 lineto
52304.1 32751.4 lineto
52360.3 32807.7 lineto
52360.3 32695.2 lineto
stroke
newpath
53428.9 33482.6 moveto
53428.9 32695.2 lineto
stroke
newpath
53147.7 33932.5 moveto
52866.5 33088.9 lineto
53597.7 33088.9 lineto
stroke
newpath
54272.6 33876.3 moveto
54385.1 33876.3 lineto
54497.5 33820 lineto
54553.8 33763.8 lineto
54610 33651.3 lineto
54666.3 33426.3 lineto
54666.3 33145.1 lineto
54610 32920.1 lineto
54553.8 32807.7 lineto
54497.5 32751.4 lineto
54385.1 32695.2 lineto
54272.6 32695.2 lineto
54160.1 32751.4 lineto
54103.8 32807.7 lineto
54047.6 32920.1 lineto
53991.4 33145.1 lineto
53991.4 33426.3 lineto
54047.6 33651.3 lineto
54103.8 33763.8 lineto
54160.1 33820 lineto
54272.6 33876.3 lineto
stroke
newpath
55172.5 32695.2 moveto
55172.5 33482.6 lineto
stroke
newpath
55172.5 33370.1 moveto
55228.7 33426.3 lineto
55341.2 33482.6 lineto
55509.9 33482.6 lineto
55622.4 33426.3 lineto
55678.6 33313.8 lineto
55678.6 32695.2 lineto
stroke
newpath
55678.6 33313.8 moveto
55734.9 33426.3 lineto
55847.4 33482.6 lineto
56016.1 33482.6 lineto
56128.6 33426.3 lineto
56184.8 33313.8 lineto
56184.8 32695.2 lineto
stroke
newpath
56747.3 32695.2 moveto
56747.3 33482.6 lineto
stroke
newpath
56747.3 33370.1 moveto
56803.5 33426.3 lineto
56916 33482.6 lineto
57084.7 33482.6 lineto
57197.2 33426.3 lineto
57253.4 33313.8 lineto
57253.4 32695.2 lineto
stroke
newpath
57253.4 33313.8 moveto
57309.7 33426.3 lineto
57422.2 33482.6 lineto
57590.9 33482.6 lineto
57703.4 33426.3 lineto
57759.6 33313.8 lineto
57759.6 32695.2 lineto
stroke
newpath
60065.6 33932.5 moveto
59053.2 32414 lineto
stroke
newpath
61584.2 33876.3 moveto
61696.6 33876.3 lineto
61809.1 33820 lineto
61865.4 33763.8 lineto
61921.6 33651.3 lineto
61977.9 33426.3 lineto
61977.9 33145.1 lineto
61921.6 32920.1 lineto
61865.4 32807.7 lineto
61809.1 32751.4 lineto
61696.6 32695.2 lineto
61584.2 32695.2 lineto
61471.7 32751.4 lineto
61415.4 32807.7 lineto
61359.2 32920.1 lineto
61302.9 33145.1 lineto
61302.9 33426.3 lineto
61359.2 33651.3 lineto
61415.4 33763.8 lineto
61471.7 33820 lineto
61584.2 33876.3 lineto
stroke
newpath
62484 32807.7 moveto
62540.3 32751.4 lineto
62484 32695.2 lineto
62427.8 32751.4 lineto
62484 32807.7 lineto
62484 32695.2 lineto
stroke
newpath
63271.4 33876.3 moveto
63383.9 33876.3 lineto
63496.4 33820 lineto
63552.7 33763.8 lineto
63608.9 33651.3 lineto
63665.1 33426.3 lineto
63665.1 33145.1 lineto
63608.9 32920.1 lineto
63552.7 32807.7 lineto
63496.4 32751.4 lineto
63383.9 32695.2 lineto
63271.4 32695.2 lineto
63159 32751.4 lineto
63102.7 32807.7 lineto
63046.5 32920.1 lineto
62990.2 33145.1 lineto
62990.2 33426.3 lineto
63046.5 33651.3 lineto
63102.7 33763.8 lineto
63159 33820 lineto
63271.4 33876.3 lineto
stroke
newpath
64790 32695.2 moveto
64115.1 32695.2 lineto
stroke
newpath
64452.5 32695.2 moveto
64452.5 33876.3 lineto
64340.1 33707.5 lineto
64227.6 33595.1 lineto
64115.1 33538.8 lineto
stroke
newpath
65802.4 33876.3 moveto
65577.4 33876.3 lineto
65464.9 33820 lineto
65408.7 33763.8 lineto
65296.2 33595.1 lineto
65239.9 33370.1 lineto
65239.9 32920.1 lineto
65296.2 32807.7 lineto
65352.4 32751.4 lineto
65464.9 32695.2 lineto
65689.9 32695.2 lineto
65802.4 32751.4 lineto
65858.6 32807.7 lineto
65914.9 32920.1 lineto
65914.9 33201.4 lineto
65858.6 33313.8 lineto
65802.4 33370.1 lineto
65689.9 33426.3 lineto
65464.9 33426.3 lineto
65352.4 33370.1 lineto
65296.2 33313.8 lineto
65239.9 33201.4 lineto
stroke
newpath
66364.8 33876.3 moveto
66364.8 33651.3 lineto
stroke
newpath
66814.8 33876.3 moveto
66814.8 33651.3 lineto
stroke
newpath
68558.3 32245.2 moveto
68502 32301.5 lineto
68389.6 32470.2 lineto
68333.3 32582.7 lineto
68277.1 32751.4 lineto
68220.8 33032.6 lineto
68220.8 33257.6 lineto
68277.1 33538.8 lineto
68333.3 33707.5 lineto
68389.6 33820 lineto
68502 33988.8 lineto
68558.3 34045 lineto
stroke
newpath
69626.9 32695.2 moveto
68952 32695.2 lineto
stroke
newpath
69289.4 32695.2 moveto
69289.4 33876.3 lineto
69177 33707.5 lineto
69064.5 33595.1 lineto
68952 33538.8 lineto
stroke
newpath
70751.8 32695.2 moveto
70076.8 32695.2 lineto
stroke
newpath
70414.3 32695.2 moveto
70414.3 33876.3 lineto
70301.8 33707.5 lineto
70189.3 33595.1 lineto
70076.8 33538.8 lineto
stroke
newpath
72157.8 32695.2 moveto
72157.8 33876.3 lineto
stroke
newpath
72664 32695.2 moveto
72664 33313.8 lineto
72607.8 33426.3 lineto
72495.3 33482.6 lineto
72326.6 33482.6 lineto
72214.1 33426.3 lineto
72157.8 33370.1 lineto
stroke
newpath
73395.2 32695.2 moveto
73282.7 32751.4 lineto
73226.4 32807.7 lineto
73170.2 32920.1 lineto
73170.2 33257.6 lineto
73226.4 33370.1 lineto
73282.7 33426.3 lineto
73395.2 33482.6 lineto
73563.9 33482.6 lineto
73676.4 33426.3 lineto
73732.6 33370.1 lineto
73788.9 33257.6 lineto
73788.9 32920.1 lineto
73732.6 32807.7 lineto
73676.4 32751.4 lineto
73563.9 32695.2 lineto
73395.2 32695.2 lineto
stroke
newpath
74463.8 32695.2 moveto
74351.3 32751.4 lineto
74295.1 32863.9 lineto
74295.1 33876.3 lineto
stroke
newpath
75363.7 32751.4 moveto
75251.2 32695.2 lineto
75026.2 32695.2 lineto
74913.7 32751.4 lineto
74857.5 32863.9 lineto
74857.5 33313.8 lineto
74913.7 33426.3 lineto
75026.2 33482.6 lineto
75251.2 33482.6 lineto
75363.7 33426.3 lineto
75419.9 33313.8 lineto
75419.9 33201.4 lineto
74857.5 33088.9 lineto
stroke
newpath
75869.9 32751.4 moveto
75982.4 32695.2 lineto
76207.3 32695.2 lineto
76319.8 32751.4 lineto
76376.1 32863.9 lineto
76376.1 32920.1 lineto
76319.8 33032.6 lineto
76207.3 33088.9 lineto
76038.6 33088.9 lineto
75926.1 33145.1 lineto
75869.9 33257.6 lineto
75869.9 33313.8 lineto
75926.1 33426.3 lineto
76038.6 33482.6 lineto
76207.3 33482.6 lineto
76319.8 33426.3 lineto
stroke
newpath
76769.8 32245.2 moveto
76826 32301.5 lineto
76938.5 32470.2 lineto
76994.7 32582.7 lineto
77051 32751.4 lineto
77107.2 33032.6 lineto
77107.2 33257.6 lineto
77051 33538.8 lineto
76994.7 33707.5 lineto
76938.5 33820 lineto
76826 33988.8 lineto
76769.8 34045 lineto
stroke
49829.8 31670.4 277.995 cir0
0 0 0 setrgbcolor
0 0 0 setrgbcolor
newpath
51460.4 32317.2 moveto
51572.9 32317.2 lineto
51685.4 32261 lineto
51741.6 32204.7 lineto
51797.9 32092.2 lineto
51854.1 31867.3 lineto
51854.1 31586.1 lineto
51797.9 31361.1 lineto
51741.6 31248.6 lineto
51685.4 31192.4 lineto
51572.9 31136.1 lineto
51460.4 31136.1 lineto
51347.9 31192.4 lineto
51291.7 31248.6 lineto
51235.4 31361.1 lineto
51179.2 31586.1 lineto
51179.2 31867.3 lineto
51235.4 32092.2 lineto
51291.7 32204.7 lineto
51347.9 32261 lineto
51460.4 32317.2 lineto
stroke
newpath
52360.3 31248.6 moveto
52416.6 31192.4 lineto
52360.3 31136.1 lineto
52304.1 31192.4 lineto
52360.3 31248.6 lineto
52360.3 31136.1 lineto
stroke
newpath
53091.5 31811 moveto
52979 31867.3 lineto
52922.7 31923.5 lineto
52866.5 32036 lineto
52866.5 32092.2 lineto
52922.7 32204.7 lineto
52979 32261 lineto
53091.5 32317.2 lineto
53316.4 32317.2 lineto
53428.9 32261 lineto
53485.2 32204.7 lineto
53541.4 32092.2 lineto
53541.4 32036 lineto
53485.2 31923.5 lineto
53428.9 31867.3 lineto
53316.4 31811 lineto
53091.5 31811 lineto
52979 31754.8 lineto
52922.7 31698.5 lineto
52866.5 31586.1 lineto
52866.5 31361.1 lineto
52922.7 31248.6 lineto
52979 31192.4 lineto
53091.5 31136.1 lineto
53316.4 31136.1 lineto
53428.9 31192.4 lineto
53485.2 31248.6 lineto
53541.4 31361.1 lineto
53541.4 31586.1 lineto
53485.2 31698.5 lineto
53428.9 31754.8 lineto
53316.4 31811 lineto
stroke
newpath
54272.6 32317.2 moveto
54385.1 32317.2 lineto
54497.5 32261 lineto
54553.8 32204.7 lineto
54610 32092.2 lineto
54666.3 31867.3 lineto
54666.3 31586.1 lineto
54610 31361.1 lineto
54553.8 31248.6 lineto
54497.5 31192.4 lineto
54385.1 31136.1 lineto
54272.6 31136.1 lineto
54160.1 31192.4 lineto
54103.8 31248.6 lineto
54047.6 31361.1 lineto
53991.4 31586.1 lineto
53991.4 31867.3 lineto
54047.6 32092.2 lineto
54103.8 32204.7 lineto
54160.1 32261 lineto
54272.6 32317.2 lineto
stroke
newpath
55172.5 31136.1 moveto
55172.5 31923.5 lineto
stroke
newpath
55172.5 31811 moveto
55228.7 31867.3 lineto
55341.2 31923.5 lineto
55509.9 31923.5 lineto
55622.4 31867.3 lineto
55678.6 31754.8 lineto
55678.6 31136.1 lineto
stroke
newpath
55678.6 31754.8 moveto
55734.9 31867.3 lineto
55847.4 31923.5 lineto
56016.1 31923.5 lineto
56128.6 31867.3 lineto
56184.8 31754.8 lineto
56184.8 31136.1 lineto
stroke
newpath
56747.3 31136.1 moveto
56747.3 31923.5 lineto
stroke
newpath
56747.3 31811 moveto
56803.5 31867.3 lineto
56916 31923.5 lineto
57084.7 31923.5 lineto
57197.2 31867.3 lineto
57253.4 31754.8 lineto
57253.4 31136.1 lineto
stroke
newpath
57253.4 31754.8 moveto
57309.7 31867.3 lineto
57422.2 31923.5 lineto
57590.9 31923.5 lineto
57703.4 31867.3 lineto
57759.6 31754.8 lineto
57759.6 31136.1 lineto
stroke
newpath
60065.6 32373.5 moveto
59053.2 30854.9 lineto
stroke
newpath
61584.2 32317.2 moveto
61696.6 32317.2 lineto
61809.1 32261 lineto
61865.4 32204.7 lineto
61921.6 32092.2 lineto
61977.9 31867.3 lineto
61977.9 31586.1 lineto
61921.6 31361.1 lineto
61865.4 31248.6 lineto
61809.1 31192.4 lineto
61696.6 31136.1 lineto
61584.2 31136.1 lineto
61471.7 31192.4 lineto
61415.4 31248.6 lineto
61359.2 31361.1 lineto
61302.9 31586.1 lineto
61302.9 31867.3 lineto
61359.2 32092.2 lineto
61415.4 32204.7 lineto
61471.7 32261 lineto
61584.2 32317.2 lineto
stroke
newpath
62484 31248.6 moveto
62540.3 31192.4 lineto
62484 31136.1 lineto
62427.8 31192.4 lineto
62484 31248.6 lineto
62484 31136.1 lineto
stroke
newpath
63271.4 32317.2 moveto
63383.9 32317.2 lineto
63496.4 32261 lineto
63552.7 32204.7 lineto
63608.9 32092.2 lineto
63665.1 31867.3 lineto
63665.1 31586.1 lineto
63608.9 31361.1 lineto
63552.7 31248.6 lineto
63496.4 31192.4 lineto
63383.9 31136.1 lineto
63271.4 31136.1 lineto
63159 31192.4 lineto
63102.7 31248.6 lineto
63046.5 31361.1 lineto
62990.2 31586.1 lineto
62990.2 31867.3 lineto
63046.5 32092.2 lineto
63102.7 32204.7 lineto
63159 32261 lineto
63271.4 32317.2 lineto
stroke
newpath
64058.8 32317.2 moveto
64790 32317.2 lineto
64396.3 31867.3 lineto
64565 31867.3 lineto
64677.5 31811 lineto
64733.8 31754.8 lineto
64790 31642.3 lineto
64790 31361.1 lineto
64733.8 31248.6 lineto
64677.5 31192.4 lineto
64565 31136.1 lineto
64227.6 31136.1 lineto
64115.1 31192.4 lineto
64058.8 31248.6 lineto
stroke
newpath
65914.9 31136.1 moveto
65239.9 31136.1 lineto
stroke
newpath
65577.4 31136.1 moveto
65577.4 32317.2 lineto
65464.9 32148.5 lineto
65352.4 32036 lineto
65239.9 31979.8 lineto
stroke
newpath
66364.8 32317.2 moveto
66364.8 32092.2 lineto
stroke
newpath
66814.8 32317.2 moveto
66814.8 32092.2 lineto
stroke
newpath
68558.3 30686.2 moveto
68502 30742.4 lineto
68389.6 30911.1 lineto
68333.3 31023.6 lineto
68277.1 31192.4 lineto
68220.8 31473.6 lineto
68220.8 31698.5 lineto
68277.1 31979.8 lineto
68333.3 32148.5 lineto
68389.6 32261 lineto
68502 32429.7 lineto
68558.3 32485.9 lineto
stroke
newpath
68952 32204.7 moveto
69008.2 32261 lineto
69120.7 32317.2 lineto
69401.9 32317.2 lineto
69514.4 32261 lineto
69570.7 32204.7 lineto
69626.9 32092.2 lineto
69626.9 31979.8 lineto
69570.7 31811 lineto
68895.7 31136.1 lineto
69626.9 31136.1 lineto
stroke
newpath
70301.8 31811 moveto
70189.3 31867.3 lineto
70133.1 31923.5 lineto
70076.8 32036 lineto
70076.8 32092.2 lineto
70133.1 32204.7 lineto
70189.3 32261 lineto
70301.8 32317.2 lineto
70526.8 32317.2 lineto
70639.3 32261 lineto
70695.5 32204.7 lineto
70751.8 32092.2 lineto
70751.8 32036 lineto
70695.5 31923.5 lineto
70639.3 31867.3 lineto
70526.8 31811 lineto
70301.8 31811 lineto
70189.3 31754.8 lineto
70133.1 31698.5 lineto
70076.8 31586.1 lineto
70076.8 31361.1 lineto
70133.1 31248.6 lineto
70189.3 31192.4 lineto
70301.8 31136.1 lineto
70526.8 31136.1 lineto
70639.3 31192.4 lineto
70695.5 31248.6 lineto
70751.8 31361.1 lineto
70751.8 31586.1 lineto
70695.5 31698.5 lineto
70639.3 31754.8 lineto
70526.8 31811 lineto
stroke
newpath
72157.8 31136.1 moveto
72157.8 32317.2 lineto
stroke
newpath
72664 31136.1 moveto
72664 31754.8 lineto
72607.8 31867.3 lineto
72495.3 31923.5 lineto
72326.6 31923.5 lineto
72214.1 31867.3 lineto
72157.8 31811 lineto
stroke
newpath
73395.2 31136.1 moveto
73282.7 31192.4 lineto
73226.4 31248.6 lineto
73170.2 31361.1 lineto
73170.2 31698.5 lineto
73226.4 31811 lineto
73282.7 31867.3 lineto
73395.2 31923.5 lineto
73563.9 31923.5 lineto
73676.4 31867.3 lineto
73732.6 31811 lineto
73788.9 31698.5 lineto
73788.9 31361.1 lineto
73732.6 31248.6 lineto
73676.4 31192.4 lineto
73563.9 31136.1 lineto
73395.2 31136.1 lineto
stroke
newpath
74463.8 31136.1 moveto
74351.3 31192.4 lineto
74295.1 31304.8 lineto
74295.1 32317.2 lineto
stroke
newpath
75363.7 31192.4 moveto
75251.2 31136.1 lineto
75026.2 31136.1 lineto
74913.7 31192.4 lineto
74857.5 31304.8 lineto
74857.5 31754.8 lineto
74913.7 31867.3 lineto
75026.2 31923.5 lineto
75251.2 31923.5 lineto
75363.7 31867.3 lineto
75419.9 31754.8 lineto
75419.9 31642.3 lineto
74857.5 31529.8 lineto
stroke
newpath
75869.9 31192.4 moveto
75982.4 31136.1 lineto
76207.3 31136.1 lineto
76319.8 31192.4 lineto
76376.1 31304.8 lineto
76376.1 31361.1 lineto
76319.8 31473.6 lineto
76207.3 31529.8 lineto
76038.6 31529.8 lineto
75926.1 31586.1 lineto
75869.9 31698.5 lineto
75869.9 31754.8 lineto
75926.1 31867.3 lineto
76038.6 31923.5 lineto
76207.3 31923.5 lineto
76319.8 31867.3 lineto
stroke
newpath
76769.8 30686.2 moveto
76826 30742.4 lineto
76938.5 30911.1 lineto
76994.7 31023.6 lineto
77051 31192.4 lineto
77107.2 31473.6 lineto
77107.2 31698.5 lineto
77051 31979.8 lineto
76994.7 32148.5 lineto
76938.5 32261 lineto
76826 32429.7 lineto
76769.8 32485.9 lineto
stroke
showpage
grestore
%%EOF
